[

  {
  "id": 1,
  "steps_limit": 1518,
  "Lat": 6.86949,
  "Long": 81.0492,
  "collected_img": "http://apps.ayubo.life/images/mobile_worker/torch_icon/zoom_level/torch-icon.png",
  "meta": 1037,
  "action": "native_post"
},
{
  "id": 2,
  "steps_limit": 6509,
  "Lat": 6.87181,
  "Long": 81.04359,
  "collected_img": "http://apps.ayubo.life/images/mobile_worker/torch_icon/zoom_level/torch-icon.png",
  "meta": 1038,
  "action": "native_post"
},
{
  "id": 3,
  "steps_limit": 11500,
  "Lat": 6.85084,
  "Long": 81.03208,
  "collected_img": "http://apps.ayubo.life/images/mobile_worker/torch_icon/zoom_level/torch-icon.png",
  "meta": 1039,
  "action": "native_post"
},
{
  "id": 4,
  "steps_limit": 16698,
  "Lat": 6.83333,
  "Long": 80.99961,
  "collected_img": "http://apps.ayubo.life/images/mobile_worker/torch_icon/zoom_level/torch-icon.png",
  "meta": 1040,
  "action": "native_post"
},
{
  "id": 5,
  "steps_limit": 21505,
  "Lat": 6.82061,
  "Long": 80.98444,
  "collected_img": "http://apps.ayubo.life/images/mobile_worker/torch_icon/zoom_level/torch-icon.png",
  "meta": 1041,
  "action": "native_post"
},
{
  "id": 6,
  "steps_limit": 26519,
  "Lat": 6.79852,
  "Long": 80.97674,
  "collected_img": "http://apps.ayubo.life/images/mobile_worker/torch_icon/zoom_level/torch-icon.png",
  "meta": 1042,
  "action": "native_post"
},
{
  "id": 7,
  "steps_limit": 31510,
  "Lat": 6.78095,
  "Long": 80.96461,
  "collected_img": "http://apps.ayubo.life/images/mobile_worker/torch_icon/zoom_level/torch-icon.png",
  "meta": 1043,
  "action": "native_post"
}
]
